{
    "tm": 1587402532,
    "events": [
        {
            "i": 20264273,
            "t": "m",
            "d": {
                "t": 1587402529,
                "f": 1073745920,
                "tp": "xx",
                "rt": 0,
                "p": {
                    "user": "GssCallcenter",
                    "action": "create_notify",
                    "host": "181.188.193.117",
                    "p1": "CREACION PRUEBA",
                    "p2": "",
                    "p3": "avl_resource"
                }
            }
        },
        {
            "i": 20264273,
            "t": "u",
            "d": {
                "unfu": [
                    22,
                    {
                        "id": 22,
                        "n": "CREACION PRUEBA",
                        "txt": "%UNIT% entró en %ZONE%. En %POS_TIME% se movió con una velocidad de %SPEED% cerca de '%LOCATION%'.",
                        "ta": 1587358800,
                        "td": 0,
                        "ma": 0,
                        "fl": 0,
                        "ac": 0,
                        "un": [
                            20164909
                        ],
                        "act": [
                            "message"
                        ],
                        "trg": "geozone",
                        "trg_p": {
                            "geozone_id": "20264273_121:1587270764",
                            "geozone_ids": "20264273_121:1587270764",
                            "lo": "OR",
                            "lower_bound": "0",
                            "max_speed": "0",
                            "merge": "0",
                            "min_speed": "0",
                            "sensor_name_mask": "",
                            "sensor_type": "",
                            "type": "0",
                            "upper_bound": "0"
                        },
                        "crc": 353944673,
                        "ct": 1587402529,
                        "mt": 1587402529
                    }
                ]
            }
        }
    ]
}


{
    "tm": 1587402662,
    "events": [
        {
            "i": 20264273,
            "t": "m",
            "d": {
                "t": 1587402659,
                "f": 1073745920,
                "tp": "xx",
                "rt": 0,
                "p": {
                    "user": "GssCallcenter",
                    "action": "delete_notify",
                    "host": "181.188.193.117",
                    "p1": "CREACION PRUEBA",
                    "p2": "",
                    "p3": "avl_resource"
                }
            }
        },
        {
            "i": 20264273,
            "t": "u",
            "d": {
                "unfu": [
                    22,
                    null
                ]
            }
        }
    ]
}

{
    "tm": 1587402820,
    "events": [
        {
            "i": 20264273,
            "t": "m",
            "d": {
                "t": 1587402818,
                "f": 1073745920,
                "tp": "xx",
                "rt": 0,
                "p": {
                    "user": "GssCallcenter",
                    "action": "update_notify",
                    "host": "181.188.193.117",
                    "p1": "SALE DE CASA1",
                    "p2": "",
                    "p3": "avl_resource"
                }
            }
        },
        {
            "i": 20264273,
            "t": "u",
            "d": {
                "unfu": [
                    21,
                    {
                        "id": 21,
                        "n": "SALE DE CASA1",
                        "txt": "%UNIT% abandonó geocerca(s) En %POS_TIME% se movió con una velocidad de %SPEED% cerca de '%LOCATION%'.",
                        "ta": 1587358800,
                        "td": 0,
                        "ma": 0,
                        "fl": 0,
                        "ac": 23,
                        "un": [
                            20164909
                        ],
                        "act": [
                            "message"
                        ],
                        "trg": "geozone",
                        "trg_p": {
                            "geozone_id": "20264273_120",
                            "geozone_ids": "20264273_120",
                            "lo": "AND",
                            "lower_bound": "0",
                            "max_speed": "0",
                            "merge": "0",
                            "min_speed": "0",
                            "sensor_name_mask": "",
                            "sensor_type": "",
                            "type": "1",
                            "upper_bound": "0"
                        },
                        "crc": 452989211,
                        "ct": 1587251016,
                        "mt": 1587402818
                    }
                ]
            }
        }
    ]
}
