{
    "t": 1587249726,
    "f": 1073742720,
    "tp": "unm",
    "name": "BOTON PANICO",
    "txt": "Un mensaje de alarma de DON FA fue recibido. En 18.04.2020 17:42:06 se movió con una velocidad de 2 km/h cerca de 'Manuel Ledesma, Santo Domingo, Santo Domingo De Los Tsáchilas, Ecuador'.",
    "color": "#ff204d",
    "url": "",
    "unit": 20164909,
    "blink": 1,
    "x": -79.2013927,
    "y": -0.2524112,
    "nid": 2,
    "rt": 0,
    "p": {}
}
noti.js: 75 {
    "t": 1587250282,
    "f": 1073745920,
    "tp": "xx",
    "rt": 0,
    "p": {
        "user": "GssCallcenter",
        "action": "update_zone",
        "host": "181.188.193.117",
        "p1": "Casa DON FA",
        "p2": "",
        "p3": "avl_resource"
    }
}
noti.js: 75 {
    "t": 1587250302,
    "f": 1073745920,
    "tp": "xx",
    "rt": 0,
    "p": {
        "user": "GssCallcenter",
        "action": "update_zone",
        "host": "181.188.193.117",
        "p1": "Casa DON FA",
        "p2": "",
        "p3": "avl_resource"
    }
}
noti.js: 75 {
    "t": 1587250415,
    "f": 1073745920,
    "tp": "xx",
    "rt": 0,
    "p": {
        "user": "GssCallcenter",
        "action": "create_zone",
        "host": "181.188.193.117",
        "p1": "GEO CASA",
        "p2": "",
        "p3": "avl_resource"
    }
}
noti.js: 75 {
    "t": 1587250923,
    "f": 1073745920,
    "tp": "xx",
    "rt": 0,
    "p": {
        "user": "GssCallcenter",
        "action": "create_notify",
        "host": "181.188.193.117",
        "p1": "ENTRA A CASA",
        "p2": "",
        "p3": "avl_resource"
    }
}
noti.js: 75 {
    "t": 1587250969,
    "f": 1073745920,
    "tp": "xx",
    "rt": 0,
    "p": {
        "user": "GssCallcenter",
        "action": "update_notify",
        "host": "181.188.193.117",
        "p1": "ENTRA A CASA",
        "p2": "",
        "p3": "avl_resource"
    }
}
noti.js: 75 {
    "t": 1587251016,
    "f": 1073745920,
    "tp": "xx",
    "rt": 0,
    "p": {
        "user": "GssCallcenter",
        "action": "create_notify",
        "host": "181.188.193.117",
        "p1": "SALDE DE CASA",
        "p2": "",
        "p3": "avl_resource"
    }
}
noti.js: 75 {
    "t": 1587251082,
    "f": 1073742720,
    "tp": "unm",
    "name": "SALDE DE CASA",
    "txt": "DON FA abandonó geocerca(s) En 18.04.2020 18:04:42 se movió con una velocidad de 1 km/h cerca de 'Manuel Ledesma, Santo Domingo, Santo Domingo De Los Tsáchilas, Ecuador'.",
    "color": "",
    "url": "",
    "unit": 20164909,
    "blink": 0,
    "x": -79.2012854,
    "y": -0.2523066,
    "nid": 21,
    "rt": 0,
    "p": {}
}
noti.js: 75 {
    "t": 1587251218,
    "f": 1073742720,
    "tp": "unm",
    "name": "ENTRA A CASA",
    "txt": "DON FA entró en Casa DON FA. En 18.04.2020 18:06:58 se movió con una velocidad de 0 km/h cerca de 'Manuel Ledesma, Santo Domingo, Santo Domingo De Los Tsáchilas, Ecuador'.",
    "color": "",
    "url": "",
    "unit": 20164909,
    "blink": 0,
    "x": -79.2016299,
    "y": -0.2523517,
    "nid": 20,
    "rt": 0,
    "p": {}
}

{
    "t": 1587269460,
    "f": 1073745920,
    "tp": "xx",
    "rt": 0,
    "p": {
        "user": "GssCallcenter",
        "action": "update_notify",
        "host": "181.188.193.117",
        "p1": "OUT GEO 2",
        "p2": "",
        "p3": "avl_resource"
    }
}